…
<img src="09_scaling_files/figure-html/unnamed-chunk-18-2.png" width="672" />

```r
# Checks
library(dplyr)
group_counts <- df.PVC_center %>% count(sub)
print(group_counts)
```

```
## # A tibble: 109 × 2
##    sub          n
##    <chr>    <int>
##  1 sub-0002    92
##  2 sub-0003   205
##  3 sub-0004   197
##  4 sub-0005   200
##  5 sub-0006   200
##  6 sub-0007   199
##  7 sub-0008   143
##  8 sub-0009   209
##  9 sub-0010   192
## 10 sub-0011   190
## # ℹ 99 more rows
```
…
