…
> YES, it is





confirm that df discrete has 5 levels per participant
the number of counts per frequency can differ 



```
## # A tibble: 516 × 3
##    src_subject_id n_1outcomelevels     n
##    <fct>                     <dbl> <int>
##  1 13                            1     2
##  2 13                            2     7
##  3 13                            3     4
##  4 13                            4    12
##  5 13                            5    19
##  6 14                            1    11
##  7 14                            2    17
##  8 14                            3     7
##  9 14                            4     8
## 10 14                            5     1
## # … with 506 more rows
```
…
## DEMEAN AND THEN DISCRETIZE





```r
res <- df_discrete %>% 
  group_by(src_subject_id,n_1outcomelevels) %>% 
  tally()
res
```

```
## # A tibble: 516 × 3
## # Groups:   src_subject_id [104]
##    src_subject_id n_1outcomelevels     n
##    <fct>                     <dbl> <int>
##  1 13                            1     2
##  2 13                            2     7
##  3 13                            3     4
##  4 13                            4    12
##  5 13                            5    19
##  6 14                            1    11
##  7 14                            2    17
##  8 14                            3     7
##  9 14                            4     8
## 10 14                            5     1
## # … with 506 more rows
```
…
