Chapter 13 (N-2) shifted outcome ratings ~ (N) expectation ratings; Jayazeri (2018) | behavioral_ICC
…
13.2.1 confirm that df discrete has 5 levels per participant

the number of counts per frequency can differ

res <- df_discrete %>% 
  group_by(src_subject_id,n_2outcomelevels) %>% 
  tally()

res

## # A tibble: 514 × 3
## # Groups:   src_subject_id [104]
##    src_subject_id n_2outcomelevels     n
##    <fct>                     <dbl> <int>
##  1 13                            1     1
##  2 13                            2     4
##  3 13                            3     4
##  4 13                            4    12
##  5 13                            5    19
##  6 14                            1    10
##  7 14                            2    16
##  8 14                            3     7
##  9 14                            4     6
## 10 14                            5     1
## # … with 504 more rows
…
df_discrete = data_a3lag_omit %>%
  group_by(src_subject_id) %>%
  mutate(lag.04outcomeangle_demean = lag.04outcomeangle-mean(lag.04outcomeangle),
         event02_expect_angle_demean = event02_expect_angle-mean(event02_expect_angle)) %>%
  mutate(bin = cut_interval(lag.04outcomeangle_demean, n = 5),
         n_2outcomelevels = as.numeric(cut_interval(lag.04outcomeangle_demean, n = 5)))

Check how many trials land in each outcome level

res <- df_discrete %>% 
  group_by(src_subject_id,n_2outcomelevels) %>% 
  tally()
res

## # A tibble: 514 × 3
## # Groups:   src_subject_id [104]
##    src_subject_id n_2outcomelevels     n
##    <fct>                     <dbl> <int>
##  1 13                            1     1
##  2 13                            2     4
##  3 13                            3     4
##  4 13                            4    12
##  5 13                            5    19
##  6 14                            1    10
##  7 14                            2    16
##  8 14                            3     7
##  9 14                            4     6
## 10 14                            5     1
## # … with 504 more rows
…
