Chapter 6 beh :: expect-outcome ~ cue * trial | Your Document Title
…
6.5 subset of participants

## # A tibble: 5,851 × 60
## # Groups:   src_subject_id [110]
##    src_subject_id session_id param_task_name param_run_num
##             <int>      <int> <chr>                   <int>
##  1              2          1 pain                        1
##  2              2          1 pain                        1
##  3              2          1 pain                        1
##  4              2          1 pain                        1
##  5              2          1 pain                        1
##  6              2          1 pain                        1
##  7              2          1 pain                        1
##  8              2          1 pain                        1
##  9              2          1 pain                        1
## 10              2          1 pain                        1
## # ℹ 5,841 more rows
## # ℹ 56 more variables: param_counterbalance_ver <int>,
## #   param_counterbalance_block_num <int>, param_cue_type <chr>,
## #   param_stimulus_type <chr>, param_cond_type <int>,
## #   param_trigger_onset <dbl>, param_start_biopac <dbl>, ITI_onset <dbl>,
## #   ITI_biopac <dbl>, ITI_duration <dbl>, event01_cue_onset <dbl>,
## #   event01_cue_biopac <dbl>, event01_cue_type <chr>, …
…
6.6 vicarious

## # A tibble: 5,851 × 60
## # Groups:   src_subject_id [110]
##    src_subject_id session_id param_task_name param_run_num
##             <int>      <int> <chr>                   <int>
##  1              2          1 pain                        1
##  2              2          1 pain                        1
##  3              2          1 pain                        1
##  4              2          1 pain                        1
##  5              2          1 pain                        1
##  6              2          1 pain                        1
##  7              2          1 pain                        1
##  8              2          1 pain                        1
##  9              2          1 pain                        1
## 10              2          1 pain                        1
## # ℹ 5,841 more rows
## # ℹ 56 more variables: param_counterbalance_ver <int>,
## #   param_counterbalance_block_num <int>, param_cue_type <chr>,
## #   param_stimulus_type <chr>, param_cond_type <int>,
## #   param_trigger_onset <dbl>, param_start_biopac <dbl>, ITI_onset <dbl>,
## #   ITI_biopac <dbl>, ITI_duration <dbl>, event01_cue_onset <dbl>,
## #   event01_cue_biopac <dbl>, event01_cue_type <chr>, …
…
6.7 cognitive

## # A tibble: 5,851 × 60
## # Groups:   src_subject_id [110]
##    src_subject_id session_id param_task_name param_run_num
##             <int>      <int> <chr>                   <int>
##  1              2          1 pain                        1
##  2              2          1 pain                        1
##  3              2          1 pain                        1
##  4              2          1 pain                        1
##  5              2          1 pain                        1
##  6              2          1 pain                        1
##  7              2          1 pain                        1
##  8              2          1 pain                        1
##  9              2          1 pain                        1
## 10              2          1 pain                        1
## # ℹ 5,841 more rows
## # ℹ 56 more variables: param_counterbalance_ver <int>,
## #   param_counterbalance_block_num <int>, param_cue_type <chr>,
## #   param_stimulus_type <chr>, param_cond_type <int>,
## #   param_trigger_onset <dbl>, param_start_biopac <dbl>, ITI_onset <dbl>,
## #   ITI_biopac <dbl>, ITI_duration <dbl>, event01_cue_onset <dbl>,
## #   event01_cue_biopac <dbl>, event01_cue_type <chr>, …
…
