…
## converges with more than 36 observations?


```r
################################################################################
# filter subject with more than 36 trials
data
```

```
## # A tibble: 5,851 × 64
## # Groups:   src_subject_id [110]
##    src_subject_id session_id param_task_name param_run_num
##             <int>      <int> <chr>                   <int>
##  1              2          1 pain                        1
##  2              2          1 pain                        1
##  3              2          1 pain                        1
##  4              2          1 pain                        1
##  5              2          1 pain                        1
##  6              2          1 pain                        1
##  7              2          1 pain                        1
##  8              2          1 pain                        1
##  9              2          1 pain                        1
## 10              2          1 pain                        1
## # ℹ 5,841 more rows
## # ℹ 60 more variables: param_counterbalance_ver <int>,
## #   param_counterbalance_block_num <int>, param_cue_type <chr>,
## #   param_stimulus_type <chr>, param_cond_type <int>,
## #   param_trigger_onset <dbl>, param_start_biopac <dbl>, ITI_onset <dbl>,
## #   ITI_biopac <dbl>, ITI_duration <dbl>, event01_cue_onset <dbl>,
## #   event01_cue_biopac <dbl>, event01_cue_type <chr>, …
```
…
