…
## 2. NPS \~ paintask: 2 cue x 3 stimulus_intensity

### Q. Within pain task, Does stimulus intenisty level and cue level significantly predict NPS dotproducts? {.unlisted .unnumbered}


```
## # A tibble: 4,012 × 25
##    sub      ses    run   runtype trial cuetype stimintensity     X event  NPSpos
##    <chr>    <chr>  <chr> <chr>   <chr> <chr>   <chr>         <int> <chr>   <dbl>
##  1 sub-0006 ses-01 run-… runtyp… tria… cuetyp… med             864 even…  19.3  
##  2 sub-0006 ses-01 run-… runtyp… tria… cuetyp… low             865 even…   4.34 
##  3 sub-0006 ses-01 run-… runtyp… tria… cuetyp… high            866 even…   9.60 
##  4 sub-0006 ses-01 run-… runtyp… tria… cuetyp… low             867 even…  10.1  
##  5 sub-0006 ses-01 run-… runtyp… tria… cuetyp… med             868 even…  13.2  
##  6 sub-0006 ses-01 run-… runtyp… tria… cuetyp… high            869 even…  -0.847
##  7 sub-0006 ses-01 run-… runtyp… tria… cuetyp… low             870 even…   8.65 
##  8 sub-0006 ses-01 run-… runtyp… tria… cuetyp… high            871 even…   7.51 
##  9 sub-0006 ses-01 run-… runtyp… tria… cuetyp… high            872 even… -11.1  
## 10 sub-0006 ses-01 run-… runtyp… tria… cuetyp… med             873 even…   0.602
## # ℹ 4,002 more rows
## # ℹ 15 more variables: STIM <fct>, STIM_linear <dbl>, STIM_quadratic <dbl>,
## #   CUE_high_gt_low <dbl>, stim_ordered <fct>, cue_name <chr>,
## #   cue_ordered <fct>, task <fct>, task_V_gt_C <dbl>, task_P_gt_VC <dbl>,
## #   event02_expect_angle <dbl>, event04_actual_angle <dbl>, stim <dbl>,
## #   EXPECT <dbl>, NPS_gmc <dbl>
```
…
