Chapter 12 N-1 outcome rating ~ N expectation rating | behavioral_ICC
…
#, "session_id", "param_run_num"
# df_subset$bin = cut_interval(df_subset$lag.04outcomeangle, n = 5)
# df_subset$bin_num = as.numeric(cut_interval(df_subset$lag.04outcomeangle, n = 5))

confirm that df discrete has 5 levels per participant
the number of counts per frequency can differ

res <- df_discrete %>% 
  group_by(src_subject_id,n_1outcomelevels) %>% 
  tally()

res

## # A tibble: 516 × 3
## # Groups:   src_subject_id [104]
##    src_subject_id n_1outcomelevels     n
##    <fct>                     <dbl> <int>
##  1 13                            1     2
##  2 13                            2     7
##  3 13                            3     4
##  4 13                            4    12
##  5 13                            5    19
##  6 14                            1    11
##  7 14                            2    17
##  8 14                            3     7
##  9 14                            4     8
## 10 14                            5     1
## # … with 506 more rows
…
#, "session_id", "param_run_num"
# df_subset$bin = cut_interval(df_subset$lag.04outcomeangle, n = 5)
# df_subset$bin_num = as.numeric(cut_interval(df_subset$lag.04outcomeangle, n = 5))

res <- df_discrete %>% 
  group_by(src_subject_id,n_1outcomelevels) %>% 
  tally()
res

## # A tibble: 516 × 3
## # Groups:   src_subject_id [104]
##    src_subject_id n_1outcomelevels     n
##    <fct>                     <dbl> <int>
##  1 13                            1     2
##  2 13                            2     7
##  3 13                            3     4
##  4 13                            4    12
##  5 13                            5    19
##  6 14                            1    11
##  7 14                            2    17
##  8 14                            3     7
##  9 14                            4     8
## 10 14                            5     1
## # … with 506 more rows
…
