…
## whitematter


```
## # A tibble: 5,907 × 18
##    fname  sub   ses   run   runtype event trial cuetype stimintensity graymatter
##    <chr>  <chr> <chr> <chr> <chr>   <chr> <chr> <chr>   <chr>              <dbl>
##  1 sub-0… sub-… ses-… run-… pain    even… tria… cuetyp… stimintensit…      0.623
##  2 sub-0… sub-… ses-… run-… pain    even… tria… cuetyp… stimintensit…     -0.475
##  3 sub-0… sub-… ses-… run-… pain    even… tria… cuetyp… stimintensit…      1.26 
##  4 sub-0… sub-… ses-… run-… pain    even… tria… cuetyp… stimintensit…      0.116
##  5 sub-0… sub-… ses-… run-… pain    even… tria… cuetyp… stimintensit…      0.620
##  6 sub-0… sub-… ses-… run-… pain    even… tria… cuetyp… stimintensit…      1.34 
##  7 sub-0… sub-… ses-… run-… pain    even… tria… cuetyp… stimintensit…      1.33 
##  8 sub-0… sub-… ses-… run-… pain    even… tria… cuetyp… stimintensit…      0.121
##  9 sub-0… sub-… ses-… run-… pain    even… tria… cuetyp… stimintensit…      0.790
## 10 sub-0… sub-… ses-… run-… pain    even… tria… cuetyp… stimintensit…      1.57 
## # ℹ 5,897 more rows
## # ℹ 8 more variables: whitematter <dbl>, csf <dbl>, cue <chr>, stim <chr>,
## #   STIM <fct>, STIM_linear <dbl>, STIM_quadratic <dbl>, CUE_high_gt_low <dbl>
```

<img src="csf_whitematter_files/figure-html/unnamed-chunk-5-1.png" width="672" />

<img src="csf_whitematter_files/figure-html/unnamed-chunk-6-1.png" width="672" />

## CSF



```
## # A tibble: 5,895 × 18
##    fname  sub   ses   run   runtype event trial cuetype stimintensity graymatter
##    <chr>  <chr> <chr> <chr> <chr>   <chr> <chr> <chr>   <chr>              <dbl>
##  1 sub-0… sub-… ses-… run-… pain    even… tria… cuetyp… stimintensit…      0.623
##  2 sub-0… sub-… ses-… run-… pain    even… tria… cuetyp… stimintensit…     -0.475
##  3 sub-0… sub-… ses-… run-… pain    even… tria… cuetyp… stimintensit…      1.26 
##  4 sub-0… sub-… ses-… run-… pain    even… tria… cuetyp… stimintensit…      0.116
##  5 sub-0… sub-… ses-… run-… pain    even… tria… cuetyp… stimintensit…      0.620
##  6 sub-0… sub-… ses-… run-… pain    even… tria… cuetyp… stimintensit…      1.34 
##  7 sub-0… sub-… ses-… run-… pain    even… tria… cuetyp… stimintensit…      1.33 
##  8 sub-0… sub-… ses-… run-… pain    even… tria… cuetyp… stimintensit…      0.121
##  9 sub-0… sub-… ses-… run-… pain    even… tria… cuetyp… stimintensit…      0.790
## 10 sub-0… sub-… ses-… run-… pain    even… tria… cuetyp… stimintensit…      1.57 
## # ℹ 5,885 more rows
## # ℹ 8 more variables: whitematter <dbl>, csf <dbl>, cue <chr>, stim <chr>,
## #   STIM <fct>, STIM_linear <dbl>, STIM_quadratic <dbl>, CUE_high_gt_low <dbl>
```
…
